digraph "src/LabyrintheNA/labyNonArbo.h"
{
 // LATEX_PDF_SIZE
  edge [fontname="Helvetica",fontsize="10",labelfontname="Helvetica",labelfontsize="10"];
  node [fontname="Helvetica",fontsize="10",shape=record];
  Node1 [label="src/LabyrintheNA/labyNon\lArbo.h",height=0.2,width=0.4,color="black", fillcolor="grey75", style="filled", fontcolor="black",tooltip="Implémentation du labyrinthe non arborescent."];
  Node1 -> Node2 [color="midnightblue",fontsize="10",style="solid",fontname="Helvetica"];
  Node2 [label="stdlib.h",height=0.2,width=0.4,color="grey75", fillcolor="white", style="filled",tooltip=" "];
  Node1 -> Node3 [color="midnightblue",fontsize="10",style="solid",fontname="Helvetica"];
  Node3 [label="stdio.h",height=0.2,width=0.4,color="grey75", fillcolor="white", style="filled",tooltip=" "];
  Node1 -> Node4 [color="midnightblue",fontsize="10",style="solid",fontname="Helvetica"];
  Node4 [label="math.h",height=0.2,width=0.4,color="grey75", fillcolor="white", style="filled",tooltip=" "];
  Node1 -> Node5 [color="midnightblue",fontsize="10",style="solid",fontname="Helvetica"];
  Node5 [label="gestionAretes.h",height=0.2,width=0.4,color="black", fillcolor="white", style="filled",URL="$_a_2gestion_aretes_8h.html",tooltip="Gestion des arêtes d'un graphe."];
  Node5 -> Node2 [color="midnightblue",fontsize="10",style="solid",fontname="Helvetica"];
  Node5 -> Node3 [color="midnightblue",fontsize="10",style="solid",fontname="Helvetica"];
  Node5 -> Node4 [color="midnightblue",fontsize="10",style="solid",fontname="Helvetica"];
  Node5 -> Node6 [color="midnightblue",fontsize="10",style="solid",fontname="Helvetica"];
  Node6 [label="time.h",height=0.2,width=0.4,color="grey75", fillcolor="white", style="filled",tooltip=" "];
  Node5 -> Node7 [color="midnightblue",fontsize="10",style="solid",fontname="Helvetica"];
  Node7 [label="compoConnexe.h",height=0.2,width=0.4,color="black", fillcolor="white", style="filled",URL="$_labyrinthe_n_a_2compo_connexe_8h.html",tooltip="Implémentation des graphes."];
  Node7 -> Node2 [color="midnightblue",fontsize="10",style="solid",fontname="Helvetica"];
  Node7 -> Node3 [color="midnightblue",fontsize="10",style="solid",fontname="Helvetica"];
  Node7 -> Node6 [color="midnightblue",fontsize="10",style="solid",fontname="Helvetica"];
  Node7 -> Node4 [color="midnightblue",fontsize="10",style="solid",fontname="Helvetica"];
  Node7 -> Node8 [color="midnightblue",fontsize="10",style="solid",fontname="Helvetica"];
  Node8 [label="liste2.h",height=0.2,width=0.4,color="black", fillcolor="white", style="filled",URL="$_labyrinthe_n_a_2liste2_8h.html",tooltip="Implémentation de liste chainée pour représenter les arêtes d'un graphe."];
  Node8 -> Node3 [color="midnightblue",fontsize="10",style="solid",fontname="Helvetica"];
  Node8 -> Node2 [color="midnightblue",fontsize="10",style="solid",fontname="Helvetica"];
  Node7 -> Node9 [color="midnightblue",fontsize="10",style="solid",fontname="Helvetica"];
  Node9 [label="partition.h",height=0.2,width=0.4,color="black", fillcolor="white", style="filled",URL="$_labyrinthe_n_a_2partition_8h.html",tooltip="Implémentation de la partition arborescente."];
  Node9 -> Node2 [color="midnightblue",fontsize="10",style="solid",fontname="Helvetica"];
  Node9 -> Node3 [color="midnightblue",fontsize="10",style="solid",fontname="Helvetica"];
  Node9 -> Node10 [color="midnightblue",fontsize="10",style="solid",fontname="Helvetica"];
  Node10 [label="liste.h",height=0.2,width=0.4,color="black", fillcolor="white", style="filled",URL="$_labyrinthe_n_a_2liste_8h.html",tooltip="Implémentation de liste chainée avec une seule valeur dans un maillon."];
  Node10 -> Node3 [color="midnightblue",fontsize="10",style="solid",fontname="Helvetica"];
  Node10 -> Node2 [color="midnightblue",fontsize="10",style="solid",fontname="Helvetica"];
  Node5 -> Node9 [color="midnightblue",fontsize="10",style="solid",fontname="Helvetica"];
  Node5 -> Node8 [color="midnightblue",fontsize="10",style="solid",fontname="Helvetica"];
  Node5 -> Node10 [color="midnightblue",fontsize="10",style="solid",fontname="Helvetica"];
  Node5 -> Node11 [color="midnightblue",fontsize="10",style="solid",fontname="Helvetica"];
  Node11 [label="type.h",height=0.2,width=0.4,color="black", fillcolor="white", style="filled",URL="$_a_2type_8h.html",tooltip="Définition du type pièce."];
  Node11 -> Node8 [color="midnightblue",fontsize="10",style="solid",fontname="Helvetica"];
  Node11 -> Node12 [color="midnightblue",fontsize="10",style="solid",fontname="Helvetica"];
  Node12 [label="direction.h",height=0.2,width=0.4,color="black", fillcolor="white", style="filled",URL="$_labyrinthe_n_a_2direction_8h.html",tooltip="Enum pour la gestion des directions."];
  Node1 -> Node7 [color="midnightblue",fontsize="10",style="solid",fontname="Helvetica"];
  Node1 -> Node8 [color="midnightblue",fontsize="10",style="solid",fontname="Helvetica"];
  Node1 -> Node13 [color="midnightblue",fontsize="10",style="solid",fontname="Helvetica"];
  Node13 [label="bool.h",height=0.2,width=0.4,color="black", fillcolor="white", style="filled",URL="$_labyrinthe_n_a_2bool_8h_source.html",tooltip=" "];
  Node1 -> Node14 [color="midnightblue",fontsize="10",style="solid",fontname="Helvetica"];
  Node14 [label="fisher-yates.h",height=0.2,width=0.4,color="black", fillcolor="white", style="filled",URL="$_a_2fisher-yates_8h.html",tooltip="Implémentation de l'algorithme de Fisher-Yates"];
  Node14 -> Node3 [color="midnightblue",fontsize="10",style="solid",fontname="Helvetica"];
  Node14 -> Node2 [color="midnightblue",fontsize="10",style="solid",fontname="Helvetica"];
  Node14 -> Node6 [color="midnightblue",fontsize="10",style="solid",fontname="Helvetica"];
  Node14 -> Node11 [color="midnightblue",fontsize="10",style="solid",fontname="Helvetica"];
  Node1 -> Node11 [color="midnightblue",fontsize="10",style="solid",fontname="Helvetica"];
  Node1 -> Node12 [color="midnightblue",fontsize="10",style="solid",fontname="Helvetica"];
  Node1 -> Node15 [color="midnightblue",fontsize="10",style="solid",fontname="Helvetica"];
  Node15 [label="graphviz.h",height=0.2,width=0.4,color="black", fillcolor="white", style="filled",URL="$_labyrinthe_n_a_2graphviz_8h.html",tooltip=" "];
  Node15 -> Node2 [color="midnightblue",fontsize="10",style="solid",fontname="Helvetica"];
  Node15 -> Node3 [color="midnightblue",fontsize="10",style="solid",fontname="Helvetica"];
  Node15 -> Node9 [color="midnightblue",fontsize="10",style="solid",fontname="Helvetica"];
  Node15 -> Node7 [color="midnightblue",fontsize="10",style="solid",fontname="Helvetica"];
}
