digraph "src/LabyrintheNA/fisher-yates.h"
{
 // LATEX_PDF_SIZE
  edge [fontname="Helvetica",fontsize="10",labelfontname="Helvetica",labelfontsize="10"];
  node [fontname="Helvetica",fontsize="10",shape=record];
  Node1 [label="src/LabyrintheNA/fisher\l-yates.h",height=0.2,width=0.4,color="black", fillcolor="grey75", style="filled", fontcolor="black",tooltip="Implémentation de l'algorithme de Fisher-Yates"];
  Node1 -> Node2 [dir="back",color="midnightblue",fontsize="10",style="solid",fontname="Helvetica"];
  Node2 [label="src/LabyrintheNA/labyNon\lArbo.h",height=0.2,width=0.4,color="black", fillcolor="white", style="filled",URL="$_a_2laby_non_arbo_8h.html",tooltip="Implémentation du labyrinthe non arborescent."];
  Node2 -> Node3 [dir="back",color="midnightblue",fontsize="10",style="solid",fontname="Helvetica"];
  Node3 [label="src/LabyrintheNA/deplacement\lDijkstra.h",height=0.2,width=0.4,color="black", fillcolor="white", style="filled",URL="$_a_2deplacement_dijkstra_8h_source.html",tooltip=" "];
}
