digraph "src/LabyrintheNA/liste.h"
{
 // LATEX_PDF_SIZE
  edge [fontname="Helvetica",fontsize="10",labelfontname="Helvetica",labelfontsize="10"];
  node [fontname="Helvetica",fontsize="10",shape=record];
  Node1 [label="src/LabyrintheNA/liste.h",height=0.2,width=0.4,color="black", fillcolor="grey75", style="filled", fontcolor="black",tooltip="Implémentation de liste chainée avec une seule valeur dans un maillon."];
  Node1 -> Node2 [dir="back",color="midnightblue",fontsize="10",style="solid",fontname="Helvetica"];
  Node2 [label="src/LabyrintheNA/partition.h",height=0.2,width=0.4,color="black", fillcolor="white", style="filled",URL="$_labyrinthe_n_a_2partition_8h.html",tooltip="Implémentation de la partition arborescente."];
  Node2 -> Node3 [dir="back",color="midnightblue",fontsize="10",style="solid",fontname="Helvetica"];
  Node3 [label="src/LabyrintheNA/compoConnexe.h",height=0.2,width=0.4,color="black", fillcolor="white", style="filled",URL="$_labyrinthe_n_a_2compo_connexe_8h.html",tooltip="Implémentation des graphes."];
  Node3 -> Node4 [dir="back",color="midnightblue",fontsize="10",style="solid",fontname="Helvetica"];
  Node4 [label="src/LabyrintheNA/parcours.h",height=0.2,width=0.4,color="black", fillcolor="white", style="filled",URL="$parcours_8h_source.html",tooltip=" "];
  Node4 -> Node5 [dir="back",color="midnightblue",fontsize="10",style="solid",fontname="Helvetica"];
  Node5 [label="src/LabyrintheNA/deplacement\lParcours.h",height=0.2,width=0.4,color="black", fillcolor="white", style="filled",URL="$deplacement_parcours_8h.html",tooltip="Gestion déplacement avec Dijkstra ou A*."];
  Node5 -> Node6 [dir="back",color="midnightblue",fontsize="10",style="solid",fontname="Helvetica"];
  Node6 [label="src/LabyrintheNA/mainJeu.h",height=0.2,width=0.4,color="black", fillcolor="white", style="filled",URL="$main_jeu_8h_source.html",tooltip=" "];
  Node4 -> Node6 [dir="back",color="midnightblue",fontsize="10",style="solid",fontname="Helvetica"];
  Node3 -> Node7 [dir="back",color="midnightblue",fontsize="10",style="solid",fontname="Helvetica"];
  Node7 [label="src/LabyrintheNA/gestion\lAretes.h",height=0.2,width=0.4,color="black", fillcolor="white", style="filled",URL="$gestion_aretes_8h.html",tooltip="Gestion des arêtes d'un graphe."];
  Node7 -> Node8 [dir="back",color="midnightblue",fontsize="10",style="solid",fontname="Helvetica"];
  Node8 [label="src/LabyrintheNA/labyNon\lArbo.h",height=0.2,width=0.4,color="black", fillcolor="white", style="filled",URL="$laby_non_arbo_8h.html",tooltip="Implémentation du labyrinthe non arborescent."];
  Node8 -> Node5 [dir="back",color="midnightblue",fontsize="10",style="solid",fontname="Helvetica"];
  Node8 -> Node6 [dir="back",color="midnightblue",fontsize="10",style="solid",fontname="Helvetica"];
  Node7 -> Node9 [dir="back",color="midnightblue",fontsize="10",style="solid",fontname="Helvetica"];
  Node9 [label="src/LabyrintheNA/kruskal.h",height=0.2,width=0.4,color="black", fillcolor="white", style="filled",URL="$_labyrinthe_n_a_2kruskal_8h.html",tooltip="Implémentation de l'algorithme de Kruskal."];
  Node3 -> Node8 [dir="back",color="midnightblue",fontsize="10",style="solid",fontname="Helvetica"];
  Node3 -> Node10 [dir="back",color="midnightblue",fontsize="10",style="solid",fontname="Helvetica"];
  Node10 [label="src/LabyrintheNA/graphviz.h",height=0.2,width=0.4,color="black", fillcolor="white", style="filled",URL="$_labyrinthe_n_a_2graphviz_8h.html",tooltip="Visualisation via graphviz."];
  Node10 -> Node8 [dir="back",color="midnightblue",fontsize="10",style="solid",fontname="Helvetica"];
  Node3 -> Node9 [dir="back",color="midnightblue",fontsize="10",style="solid",fontname="Helvetica"];
  Node2 -> Node7 [dir="back",color="midnightblue",fontsize="10",style="solid",fontname="Helvetica"];
  Node2 -> Node10 [dir="back",color="midnightblue",fontsize="10",style="solid",fontname="Helvetica"];
  Node2 -> Node9 [dir="back",color="midnightblue",fontsize="10",style="solid",fontname="Helvetica"];
  Node1 -> Node7 [dir="back",color="midnightblue",fontsize="10",style="solid",fontname="Helvetica"];
  Node1 -> Node9 [dir="back",color="midnightblue",fontsize="10",style="solid",fontname="Helvetica"];
}
