digraph "ADJ_CEL"
{
 // LATEX_PDF_SIZE
  edge [fontname="Helvetica",fontsize="10",labelfontname="Helvetica",labelfontsize="10"];
  node [fontname="Helvetica",fontsize="10",shape=record];
  rankdir="RL";
  Node1 [label="ADJ_CEL",height=0.2,width=0.4,color="black", fillcolor="grey75", style="filled", fontcolor="black",tooltip="ajout d'une cellule dans la liste chainée"];
  Node1 -> Node2 [dir="back",color="midnightblue",fontsize="10",style="solid",fontname="Helvetica"];
  Node2 [label="insere_tete",height=0.2,width=0.4,color="black", fillcolor="white", style="filled",URL="$_labyrinthe_n_a_2liste_8h.html#a04c4cf59cc1a089478293f948ebef01a",tooltip="inseretion en tête d'un élément"];
  Node2 -> Node3 [dir="back",color="midnightblue",fontsize="10",style="solid",fontname="Helvetica"];
  Node3 [label="lister_classe",height=0.2,width=0.4,color="black", fillcolor="white", style="filled",URL="$_labyrinthe_n_a_2partition_8h.html#a3a375ee0528f66d4cc521f176b82988b",tooltip="liste les élément d'une classe donnée"];
  Node2 -> Node4 [dir="back",color="midnightblue",fontsize="10",style="solid",fontname="Helvetica"];
  Node4 [label="lister_partition",height=0.2,width=0.4,color="black", fillcolor="white", style="filled",URL="$_labyrinthe_n_a_2partition_8h.html#abd7b8496d8d64bda7cfed611b2c67745",tooltip="liste des classes (et de leurs élements) d'une partition"];
}
