digraph "enfiler"
{
 // LATEX_PDF_SIZE
  edge [fontname="Helvetica",fontsize="10",labelfontname="Helvetica",labelfontsize="10"];
  node [fontname="Helvetica",fontsize="10",shape=record];
  rankdir="RL";
  Node1 [label="enfiler",height=0.2,width=0.4,color="black", fillcolor="grey75", style="filled", fontcolor="black",tooltip="Fonction d'insertion d'un maillon dans un tas (le met à la bonne place), le maillon n'est pas inséré ..."];
  Node1 -> Node2 [dir="back",color="midnightblue",fontsize="10",style="solid",fontname="Helvetica"];
  Node2 [label="tri_par_tas",height=0.2,width=0.4,color="black", fillcolor="white", style="filled",URL="$_labyrinthe_n_a_2tas__binaire_8h.html#af90c23e1733ac6ade1569794e76e9119",tooltip="Fonction triant un tableau de maillons via le tri par tas."];
}
