digraph "creer_partition"
{
 // LATEX_PDF_SIZE
  edge [fontname="Helvetica",fontsize="10",labelfontname="Helvetica",labelfontsize="10"];
  node [fontname="Helvetica",fontsize="10",shape=record];
  rankdir="RL";
  Node1 [label="creer_partition",height=0.2,width=0.4,color="black", fillcolor="grey75", style="filled", fontcolor="black",tooltip="initialisation de la partition"];
  Node1 -> Node2 [dir="back",color="midnightblue",fontsize="10",style="solid",fontname="Helvetica"];
  Node2 [label="aretesParP",height=0.2,width=0.4,color="black", fillcolor="white", style="filled",URL="$gestion_aretes_8h.html#ac03948f8626c9d100599c247c13d28cb",tooltip="suppression d'arete celon le parametre p pour faire l'arbre couvrant"];
  Node2 -> Node3 [dir="back",color="midnightblue",fontsize="10",style="solid",fontname="Helvetica"];
  Node3 [label="creerLabyrintheNA",height=0.2,width=0.4,color="black", fillcolor="white", style="filled",URL="$laby_non_arbo_8h.html#a33d3f0dc4334fb2c66f7ed7ae9258847",tooltip="création du labyrinthe non arborescent"];
  Node1 -> Node4 [dir="back",color="midnightblue",fontsize="10",style="solid",fontname="Helvetica"];
  Node4 [label="kruskal",height=0.2,width=0.4,color="black", fillcolor="white", style="filled",URL="$_labyrinthe_n_a_2kruskal_8h.html#a1f4e571718d8e3322f348da4ea6b2519",tooltip="recherche de l'arbe couvrant sur un graphe"];
}
